{
  "project_info": {
    "project_number": "652693524087",
    "firebase_url": "https://faaatsedelivery-default-rtdb.firebaseio.com",
    "project_id": "faaatsedelivery",
    "storage_bucket": "faaatsedelivery.appspot.com"
  },
  "client": [
    {
      "client_info": {
        "mobilesdk_app_id": "1:652693524087:android:f7ebd76b756810c1dcc072",
        "android_client_info": {
          "package_name": "com.faaatse.faaatsedelivery"
        }
      },
      "oauth_client": [
        {
          "client_id": "652693524087-omtjaio54vcv03593vj6lnh39o3om2h5.apps.googleusercontent.com",
          "client_type": 3
        }
      ],
      "api_key": [
        {
          "current_key": "AIzaSyCmH1xqF8m7uh4Wm7IR4CCdQrjeJgiSwmY"
        }
      ],
      "services": {
        "appinvite_service": {
          "other_platform_oauth_client": [
            {
              "client_id": "652693524087-omtjaio54vcv03593vj6lnh39o3om2h5.apps.googleusercontent.com",
              "client_type": 3
            }
          ]
        }
      }
    }
  ],
  "configuration_version": "1"
}